\relax 
\citation{kumatani}
\@writefile{toc}{\contentsline {section}{\numberline {1}はじめに}{1}}
\citation{okamoto}
\@writefile{toc}{\contentsline {section}{\numberline {2}代替食材推薦のデザイン指針}{2}}
\newlabel{sec:design}{{2}{2}}
\@writefile{toc}{\contentsline {subsection}{\numberline {2.1}代替食材使用のケーススタディ}{2}}
\newlabel{fig:mock_up}{{1}{2}}
\@writefile{toc}{\contentsline {subsection}{\numberline {2.2}代替食材推薦のデザインコンセプト}{2}}
\@writefile{toc}{\contentsline {section}{\numberline {3}複数観点に基づく食材間関係の発見}{2}}
\newlabel{methods}{{3}{2}}
\citation{Jyamakata}
\citation{mine3}
\citation{mar}
\citation{IBM}
\citation{Jyamakata}
\@writefile{toc}{\contentsline {subsection}{\numberline {3.1}使用するデータとデータクレンジング}{3}}
\@writefile{toc}{\contentsline {subsection}{\numberline {3.2}残存食材集合に対する相性}{3}}
\newlabel{method:compatible}{{3.2}{3}}
\newlabel{eq:S}{{1}{3}}
\newlabel{eq:co}{{2}{3}}
\newlabel{eq:GM}{{3}{3}}
\@writefile{toc}{\contentsline {subsection}{\numberline {3.3}交換食材とのレシピ中での役割の類似性}{3}}
\newlabel{method:role}{{3.3}{3}}
\citation{mikolov}
\citation{julien}
\citation{tsukuda}
\citation{julien}
\citation{tsukuda}
\citation{sidochi}
\@writefile{toc}{\contentsline {subsection}{\numberline {3.4}交換食材の食感との類似性}{4}}
\newlabel{method:texture}{{3.4}{4}}
\@writefile{toc}{\contentsline {section}{\numberline {4}代替食材の推薦実験}{4}}
\newlabel{sec:experiment}{{4}{4}}
\newlabel{tab:recipe}{{1}{4}}
\@writefile{toc}{\contentsline {subsection}{\numberline {4.1}残存食材集合に対する相性}{4}}
\newlabel{tab:suitable_top10}{{2}{5}}
\newlabel{tab:role_top10}{{3}{5}}
\newlabel{tab:sim_top10}{{4}{5}}
\@writefile{toc}{\contentsline {subsection}{\numberline {4.2}交換食材との「レシピ中での役割」の類似性}{5}}
\newlabel{sim_role}{{4.2}{5}}
\citation{julien}
\citation{tsukuda}
\citation{sidochi}
\newlabel{tab:evaluations}{{5}{6}}
\newlabel{tab:questionnaire}{{6}{6}}
\newlabel{tab:role_evaluated}{{7}{6}}
\@writefile{toc}{\contentsline {subsection}{\numberline {4.3}交換食材との「食感」の類似性}{6}}
\@writefile{toc}{\contentsline {section}{\numberline {5}関連研究}{6}}
\citation{IBM2}
\citation{fp}
\bibcite{kumatani}{1}
\bibcite{okamoto}{2}
\bibcite{Jyamakata}{3}
\bibcite{mine3}{4}
\bibcite{mar}{5}
\newlabel{tab:texture_evaluated}{{8}{7}}
\@writefile{toc}{\contentsline {section}{\numberline {6}おわりに}{7}}
\bibcite{IBM}{6}
\bibcite{mikolov}{7}
\bibcite{julien}{8}
\bibcite{tsukuda}{9}
\bibcite{sidochi}{10}
\bibcite{IBM2}{11}
\bibcite{fp}{12}
\newlabel{jjsftii@lastpage}{{}{9}}
